[
	{
		"buildingid": "bid-VLCOKNHA5SCOP5PFHIHOLZWVXU",
		"buildingname": "BD-5438",
		"buildingaddress":"100台北市中正區長沙街一段2號",
		"latitude": 25.0403033,
		"longitude": 121.5114192,
		"tanks": [
			{
				"floor": -1,
				"tankid": "tid-bcff9002c424a494fa1a013a716ae832"
			},
			{
				"floor": 13,
				"tankid": "tid-dfaa9da7c14057bba5cce0936668ae4a"
			}
		]
	},
	{
		"buildingid": "bid-R5I4VWHBIYB6DPNLMXEGDMUASI",
		"buildingname": "BD-9487",
		"buildingaddress":"100台北市中正區重慶南路一段122號",
		"latitude": 25.040095,
		"longitude": 121.512078,
		"tanks": [
			{
				"floor": -2,
				"tankid": "tid-acedd0e1b1b21ccc37eac5ea863bc93e"
			},
			{
				"floor": 13,
				"tankid": "tid-d183ec048cac06cd119a47967b2aef50"
			},
			{
				"floor": 24,
				"tankid": "tid-9cc32bb529694d0721043ca77012431d"
			}
		]
	},
	{
		"buildingid": "bid-Y5POGRPJSY4EN3QYIYXY6ZZHVA",
		"buildingname": "BD-5487",
		"buildingaddress":"100台北市中正區中華路二段467巷80弄20號",
		"latitude": 25.0265992,
		"longitude": 121.5113469,
		"tanks": [
			{
				"floor": 9,
				"tankid": "tid-0d429a99fa8e2b78ad3daed1d2f937e4"
			}
		]
	},
	{
		"buildingid": "bid-QJP5SXXQLFFQDD5CYGV4U5CDOA",
		"buildingname": "BD-2978",
		"buildingaddress":"100台北市中正區詔安街 126 號",
		"latitude": 25.0256026,
		"longitude": 121.5107404,
		"tanks": [
			{
				"floor": -3,
				"tankid": "tid-c6f1be34ec2b1bd10ad9c29fa131a257"
			},
			{
				"floor": 14,
				"tankid": "tid-6618ad3bda8b4bd1252b55224fd7b311"
			},
			{
				"floor": 28,
				"tankid": "tid-be39e6cd89f2caa01f0a6d530c837681"
			}
		]
	},
	{
		"buildingid": "bid-3ILKYHMJLXFRDXHSRSRJ246MD4",
		"buildingname": "BD-2478",
		"buildingaddress":"100台北市中正區汀州路一段226巷2號",
		"latitude": 25.0272705,
		"longitude": 121.5091862,
		"tanks": [
			{
				"floor": -2,
				"tankid": "tid-2897a293c5c60758682a11f27b95c162"
			},
			{
				"floor": 15,
				"tankid": "tid-c6f615aa9a5e522d6cd60d5f92b2160e"
			}
		]
	},
	{
		"buildingid": "bid-HR5JP5XQ5RUGB2QDNSAE4WKVRU",
		"buildingname": "BD-8787",
		"buildingaddress":"100台北市中正區汀州路一段121號",
		"latitude": 25.0281959,
		"longitude": 121.5094753,
		"tanks": [
			{
				"floor": 9,
				"tankid": "tid-edab0c3d09dda9e04c73d9aad0bd0cd8"
			}
		]
	},
	{
		"buildingid": "bid-6D6VADDFNK3T5XCCTFC4N7NX44",
		"buildingname": "BD-9043",
		"buildingaddress":"100台北市中正區汀州路一段340巷5弄16號",
		"latitude": 25.0258047,
		"longitude": 121.5120999,
		"tanks": [
			{
				"floor": -2,
				"tankid": "tid-47a9856a6d6fc8a1e6a2f1558b854514"
			},
			{
				"floor": 10,
				"tankid": "tid-6973ff0c4c941a2aeced071e25e57207"
			},
			{
				"floor": 21,
				"tankid": "tid-30a8567f1b8fb33824fe8437d9acbceb"
			}
		]
	},
	{
		"buildingid": "bid-GGOBSQXT3KFVGZIZLBWFYUKRTI",
		"buildingname": "BD-8748",
		"buildingaddress":"100台北市中正區重慶南路三段65巷6弄7-1",
		"latitude": 25.026458,
		"longitude": 121.5169021,
		"tanks": [
			{
				"floor": -1,
				"tankid": "tid-74f352b059db0cf8d51be1ebcb3d68af"
			},
			{
				"floor": 15,
				"tankid": "tid-1dae01b5d026cd18f754d981e5bfbf06"
			}
		]
	},
	{
		"buildingid": "bid-GI4FJBS2AOIVZHBSVDUY2BHCE4",
		"buildingname": "BD-1017",
		"buildingaddress":"100台北市中正區寧波西街40巷4-8",
		"latitude": 25.0304303,
		"longitude": 121.5181134,
		"tanks": [
			{
				"floor": -1,
				"tankid": "tid-304b61c7d0d3555d8eb055083215bcc2"
			},
			{
				"floor": 14,
				"tankid": "tid-2521f46e67121ace7a1a4400a0059363"
			}
		]
	},
	{
		"buildingid": "bid-ILJPKUD7YPBEXARHOOQQYA4YLQ",
		"buildingname": "BD-2359",
		"buildingaddress":"100台北市中正區羅斯福路一段8之1號",
		"latitude": 25.0365061,
		"longitude": 121.5253816,
		"tanks": [
			{
				"floor": -1,
				"tankid": "tid-6a9bfa6abf6b4fa8faf4fb94a7f6d372"
			},
			{
				"floor": 15,
				"tankid": "tid-cb6b35249bc5aa46429bc8b261a67c50"
			}
		]
	}
]